Create and/or parse output directory paths — name_env_out • envFunc
…
files
#> # A tibble: 100 × 21
#>    extent        extent_polygons extent_filt_col extent_filt_level extent_buffer
#>    <chr>         <chr>           <chr>           <chr>             <chr>        
#>  1 sa_ibrasub_x… sa_ibrasub_xn   ""              ""                0            
#>  2 sa_ibrasub_x… sa_ibrasub_xn   ""              ""                0            
#>  3 sa_ibrasub_x… sa_ibrasub_xn   ""              ""                0            
#>  4 sa_ibrasub_x… sa_ibrasub_xn   ""              ""                0            
#>  5 sa_ibrasub_x… sa_ibrasub_xn   ""              ""                0            
#>  6 sa_ibrasub_x… sa_ibrasub_xn   ""              ""                0            
#>  7 sa_ibrasub_x… sa_ibrasub_xn   ""              ""                0            
#>  8 sa_ibrasub_x… sa_ibrasub_xn   ""              ""                0            
#>  9 sa_ibrasub_x… sa_ibrasub_xn   ""              ""                0            
#> 10 sa_ibrasub_x… sa_ibrasub_xn   ""              ""                0            
#> # ℹ 90 more rows
#> # ℹ 16 more variables: extent_temp_ext <chr>, grain <chr>, grain_x <chr>,
#> #   grain_y <chr>, grain_z <chr>, grain_taxonomic <chr>, reliability <chr>,
#> #   reliability_rel_geo <chr>, reliability_rel_temp <chr>, aoi <chr>,
#> #   aoi_polygons <chr>, aoi_filt_col <chr>, aoi_filt_level <chr>,
#> #   aoi_buffer <chr>, path <fs::path>, files <fs::path>
…
